S&P 500 Stock Prices
…
Now to the analysis.

Question 1

Which date in the sample saw the largest overall trading volume? On
that date, which two stocks were traded most?

The code chunks below will answer the questions.

sp500 %>% select(date, volume) %>% 
  group_by(date) %>%
  summarize(vol_sum = sum(volume)) %>% 
  arrange(-vol_sum)

## # A tibble: 1,007 x 2
##    date          vol_sum
##    <date>          <dbl>
##  1 2015-08-24 4607945196
##  2 2016-06-24 4367393052
##  3 2015-12-18 4124454411
##  4 2016-01-20 4087629753
##  5 2016-11-10 4060601612
##  6 2014-10-15 3993171524
##  7 2015-09-18 3962050449
##  8 2016-11-09 3915089371
##  9 2016-01-15 3787884056
## 10 2017-12-15 3786992731
## # ... with 997 more rows

From the result, we can see that 2015-08-24 saw the largest
overall trading volume in our set.

sp500 %>% filter(date == '2015-08-24') %>% 
  select(symbol, volume) %>% 
  group_by(symbol) %>%
  summarize(vol_sum = sum(volume)) %>% 
  arrange(-vol_sum)

## # A tibble: 492 x 2
##    symbol   vol_sum
##    <chr>      <dbl>
##  1 BAC    214649482
##  2 AAPL   162206292
##  3 GE      91236502
##  4 MSFT    88753660
##  5 FB      83710727
##  6 INTC    83234171
##  7 T       77231318
##  8 CSCO    61666993
##  9 NFLX    59951948
## 10 F       59805935
## # ... with 482 more rows
…
Question 3

On which date did Amazon (AMZN) see the most volatility, measured by
the difference between the high and low price?

With this code chunk, the question above will be answered.

sp500 %>% filter(symbol == 'AMZN') %>%
  select(symbol, date, open, close) %>% 
  mutate(volatility = abs(open - close)) %>% 
  arrange(-volatility)

## # A tibble: 1,007 x 5
##    symbol date        open close volatility
##    <chr>  <date>     <dbl> <dbl>      <dbl>
##  1 AMZN   2015-07-24  579.  529.       49.6
##  2 AMZN   2017-10-27 1058. 1101.       42.8
##  3 AMZN   2017-12-04 1174. 1134.       39.9
##  4 AMZN   2016-01-13  621.  582.       39.1
##  5 AMZN   2016-11-10  779.  742.       36.4
##  6 AMZN   2017-06-09 1012.  978.       34.2
##  7 AMZN   2017-11-29 1195. 1161.       33.5
##  8 AMZN   2017-07-31 1019.  988.       31.3
##  9 AMZN   2016-02-05  529.  502.       27.1
## 10 AMZN   2016-01-28  608.  635.       27.0
## # ... with 997 more rows
…
This first code chunk will filter and group stocks for the two dates
we are examining. After this, this next code will calculate and arrange
the difference between the prices in order to determine the best
performing stock between the selected period.

price_diff_2014_and_2017 <- sp500_in_2014_and_2017 %>% 
  group_by(symbol) %>% 
  mutate(price_diff = c(NA, diff(close))) %>%
  arrange(-price_diff) %>% 
  print(n = 10)

## # A tibble: 988 x 5
## # Groups:   symbol [505]
##    symbol date        open close price_diff
##    <chr>  <date>     <dbl> <dbl>      <dbl>
##  1 AMZN   2017-12-29 1182. 1169.       772.
##  2 PCLN   2017-12-29 1765. 1738.       592.
##  3 GOOGL  2017-12-29 1055. 1053.       496.
##  4 MTD    2017-12-29  625.  620.       378.
##  5 EQIX   2017-12-29  456.  453.       278.
##  6 ISRG   2017-12-29  369.  365.       238.
##  7 AZO    2017-12-29  718.  711.       237.
##  8 SHW    2017-12-29  414.  410.       228.
##  9 AVGO   2017-12-29  260.  257.       204.
## 10 CHTR   2017-12-29  335.  336.       201.
## # ... with 978 more rows
…
